<svg width="890" height="562" viewBox="0 0 890 562" fill="none" xmlns="http://www.w3.org/2000/svg">
<path d="M788.407 561.759H155.443C148.364 561.759 140.99 557.919 140.105 546.72V536.484L209.419 397.643C213.253 389.646 220.92 384.207 229.181 384.207H713.784C722.926 384.207 742.69 403.403 746.819 412.361L804.039 538.722V543.201C804.039 556.32 796.074 561.759 788.407 561.759Z" fill="#333333"/>
<path d="M788.402 547.359H155.44C148.361 547.359 136.858 540.642 141.282 532.323L209.71 382.925C213.545 374.928 221.214 369.489 229.472 369.489H714.075C723.217 369.489 731.478 374.928 735.311 383.885L802.853 530.724C807.574 540.321 796.367 547.359 788.402 547.359Z" fill="#9797FF"/>
<path d="M701.693 355.098H235.378C220.924 355.098 209.422 342.303 209.422 326.947V28.151C209.422 12.476 221.219 0 235.378 0H701.693C716.147 0 727.65 12.794 727.65 28.151V326.626C727.943 342.303 716.147 355.098 701.693 355.098Z" fill="#333333"/>
<path d="M707.582 18.8699H229.176V326.623H707.582V18.8699Z" fill="white"/>
<path d="M257.502 401.489H237.15C234.201 401.489 232.43 400.529 232.725 399.569L233.905 396.371C234.201 395.411 236.854 394.451 239.806 394.451H259.862C262.515 394.451 264.58 395.411 264.287 396.371L263.107 399.569C262.811 400.85 260.155 401.489 257.502 401.489Z" fill="#333333"/>
<path d="M291.412 401.489H271.06C268.111 401.489 266.34 400.529 266.635 399.569L267.816 396.371C268.111 395.411 270.764 394.451 273.42 394.451H293.477C296.13 394.451 298.194 395.411 297.901 396.371L297.017 399.569C297.017 400.85 294.361 401.489 291.412 401.489Z" fill="#333333"/>
<path d="M325.623 401.489H305.271C302.322 401.489 300.258 400.529 300.553 399.569L301.438 396.371C301.734 395.411 304.091 394.451 307.043 394.451H327.099C329.752 394.451 331.817 395.411 331.817 396.371L331.228 399.569C330.932 400.85 328.572 401.489 325.623 401.489Z" fill="#333333"/>
<path d="M359.842 401.489H339.493C336.541 401.489 334.476 400.529 334.772 399.569L335.361 396.371C335.657 395.411 338.017 394.451 340.966 394.451H361.022C363.678 394.451 366.038 395.411 365.742 396.371L365.151 399.569C365.151 400.85 362.498 401.489 359.842 401.489Z" fill="#333333"/>
<path d="M394.051 401.489H373.699C370.75 401.489 368.686 400.529 368.979 399.569L369.57 396.371C369.863 395.411 372.223 394.451 374.879 394.451H394.936C397.589 394.451 399.949 395.411 399.656 396.371L399.36 399.569C399.064 400.85 396.704 401.489 394.051 401.489Z" fill="#333333"/>
<path d="M427.982 401.489H407.63C404.682 401.489 402.617 400.529 402.617 399.569L402.913 396.371C402.913 395.411 405.273 394.451 408.222 394.451H428.278C430.934 394.451 433.291 395.411 433.291 396.371L432.998 399.569C433.291 400.85 430.934 401.489 427.982 401.489Z" fill="#333333"/>
<path d="M462.191 401.489H441.839C438.891 401.489 436.826 400.529 436.826 399.569L437.119 396.371C437.119 395.411 439.479 394.451 442.135 394.451H462.191C464.845 394.451 467.205 395.411 467.205 396.371V399.569C467.205 400.85 465.14 401.489 462.191 401.489Z" fill="#333333"/>
<path d="M496.408 401.489H476.056C473.107 401.489 471.043 400.529 471.043 399.569V396.371C471.043 395.411 473.403 394.451 476.056 394.451H496.113C498.768 394.451 501.129 395.411 501.129 396.371L501.422 399.569C501.422 400.85 499.061 401.489 496.408 401.489Z" fill="#333333"/>
<path d="M530.625 401.489H510.273C507.324 401.489 504.964 400.529 504.964 399.569L504.668 396.371C504.668 395.411 506.732 394.451 509.684 394.451H529.74C532.393 394.451 534.754 395.411 535.049 396.371L535.342 399.569C535.638 400.85 533.278 401.489 530.625 401.489Z" fill="#333333"/>
<path d="M564.537 401.489H544.185C541.236 401.489 538.876 400.529 538.876 399.569L538.58 396.371C538.58 395.411 540.644 394.451 543.3 394.451H563.357C566.012 394.451 568.666 395.411 568.666 396.371L569.254 399.569C569.55 400.85 567.486 401.489 564.537 401.489Z" fill="#333333"/>
<path d="M598.755 401.489H578.403C575.454 401.489 573.094 400.529 573.094 399.569L572.505 396.371C572.21 395.411 574.57 394.451 577.223 394.451H597.279C599.935 394.451 602.59 395.411 602.885 396.371L603.473 399.569C603.769 400.85 601.704 401.489 598.755 401.489Z" fill="#333333"/>
<path d="M632.964 401.489H612.612C609.663 401.489 607.303 400.529 607.007 399.569L606.419 396.371C606.123 395.411 608.187 394.451 611.136 394.451H631.193C633.848 394.451 636.502 395.411 636.797 396.371L637.682 399.569C637.682 400.85 635.617 401.489 632.964 401.489Z" fill="#333333"/>
<path d="M666.884 401.489H646.532C643.584 401.489 641.223 400.529 640.928 399.569L640.043 396.371C639.75 395.411 641.815 394.451 644.468 394.451H664.524C667.18 394.451 669.833 395.411 670.129 396.371L671.309 399.569C671.898 400.85 669.833 401.489 666.884 401.489Z" fill="#333333"/>
<path d="M701.102 401.489H680.753C677.801 401.489 675.444 400.529 674.852 399.569L673.672 396.371C673.379 395.411 675.148 394.451 678.097 394.451H698.153C700.809 394.451 703.462 395.411 704.054 396.371L705.234 399.569C705.822 400.85 704.054 401.489 701.102 401.489Z" fill="#333333"/>
<path d="M255.424 413.963H229.47C228.879 413.963 228.29 413.642 228.583 413.642L232.419 403.407C232.419 403.086 233.008 403.086 233.599 403.086H258.965C259.553 403.086 260.145 403.407 259.849 403.407L256.605 413.642C256.9 413.642 256.309 413.963 255.424 413.963Z" fill="#333333"/>
<path d="M303.209 427.396H276.959C276.371 427.396 275.779 427.075 275.779 426.757L279.024 416.2C279.024 415.88 279.615 415.879 280.204 415.879H306.161C306.749 415.879 307.341 416.2 307.341 416.2L304.685 426.757C304.389 427.075 303.8 427.396 303.209 427.396Z" fill="#333333"/>
<path d="M307.634 441.474H280.5C279.909 441.474 279.32 441.153 279.32 440.835L282.565 429.637C282.565 429.319 283.153 428.998 284.038 428.998H310.586C311.175 428.998 311.763 429.319 311.763 429.637L309.11 440.835C308.815 441.153 308.226 441.474 307.634 441.474Z" fill="#333333"/>
<path d="M322.683 455.871H295.25C294.662 455.871 294.07 455.55 294.07 455.232L297.022 443.716C297.022 443.395 297.61 443.074 298.495 443.074H325.632C326.22 443.074 326.812 443.395 326.812 443.716L324.452 455.232C323.86 455.871 323.272 455.871 322.683 455.871Z" fill="#333333"/>
<path d="M235.961 473.147H207.941C207.057 473.147 206.762 472.826 206.762 472.508L211.776 458.751C211.776 458.43 212.661 458.112 213.25 458.112H240.681C241.27 458.112 241.861 458.43 241.861 458.751L237.437 472.508C237.141 472.826 236.552 473.147 235.961 473.147Z" fill="#333333"/>
<path d="M273.422 473.147H245.401C244.516 473.147 244.221 472.826 244.221 472.508L248.645 458.751C248.645 458.43 249.53 458.112 250.121 458.112H277.551C278.142 458.112 278.731 458.43 278.731 458.751L274.898 472.508C274.602 472.826 274.011 473.147 273.422 473.147Z" fill="#333333"/>
<path d="M309.707 473.147H281.686C280.801 473.147 280.506 472.826 280.506 472.508L284.342 458.751C284.342 458.43 285.226 458.112 285.815 458.112H313.247C313.836 458.112 314.428 458.43 314.428 458.751L311.183 472.508C311.183 472.826 310.296 473.147 309.707 473.147Z" fill="#333333"/>
<path d="M355.422 473.147H318.554C317.667 473.147 317.078 472.826 317.078 472.508L320.027 458.751C320.027 458.43 320.911 458.112 321.796 458.112H358.075C358.959 458.112 359.551 458.43 359.551 458.751L357.486 472.508C356.895 472.826 356.306 473.147 355.422 473.147Z" fill="#333333"/>
<path d="M583.123 473.147H546.255C545.371 473.147 544.78 472.826 544.78 472.508L543.307 458.751C543.307 458.43 543.895 458.112 544.78 458.112H581.059C581.943 458.112 582.535 458.43 582.535 458.751L584.892 472.508C584.599 472.826 584.008 473.147 583.123 473.147Z" fill="#333333"/>
<path d="M620.581 473.147H592.856C591.971 473.147 591.383 472.826 591.383 472.508L589.021 458.751C589.021 458.43 589.613 458.112 590.201 458.112H617.336C617.927 458.112 618.812 458.43 618.812 458.751L621.76 472.508C621.76 472.826 621.468 473.147 620.581 473.147Z" fill="#333333"/>
<path d="M536.813 473.148H366.036C364.267 473.148 362.791 472.506 363.087 471.867L364.855 459.711C364.855 459.069 366.627 458.43 368.1 458.43H535.338C537.106 458.43 538.582 459.069 538.582 459.711L539.762 471.867C540.058 472.506 538.582 473.148 536.813 473.148Z" fill="#333333"/>
<path d="M358.373 455.871H330.944C330.352 455.871 329.764 455.55 329.764 455.232L332.121 443.716C332.121 443.395 332.712 443.074 333.301 443.074H360.438C361.027 443.074 361.618 443.395 361.618 443.716L359.847 455.232C359.847 455.871 359.258 455.871 358.373 455.871Z" fill="#333333"/>
<path d="M394.053 455.871H366.623C366.032 455.871 365.443 455.55 365.443 455.232L367.212 443.716C367.212 443.395 367.803 443.074 368.392 443.074H395.529C396.118 443.074 396.709 443.395 396.709 443.716L395.529 455.232C395.529 455.871 394.938 455.871 394.053 455.871Z" fill="#333333"/>
<path d="M430.041 455.871H402.612C402.02 455.871 401.431 455.55 401.431 455.232L402.612 443.716C402.612 443.395 403.2 443.074 403.789 443.074H430.926C431.515 443.074 432.106 443.395 432.106 443.716L431.515 455.232C431.222 455.871 430.63 455.871 430.041 455.871Z" fill="#333333"/>
<path d="M465.721 455.871H438.291C437.7 455.871 437.111 455.55 437.111 455.232L437.7 443.716C437.7 443.395 438.291 443.074 438.88 443.074H466.017C466.606 443.074 467.197 443.395 467.197 443.716V455.232C466.901 455.871 466.313 455.871 465.721 455.871Z" fill="#333333"/>
<path d="M501.422 455.871H473.992C473.404 455.871 472.812 455.55 472.812 455.232V443.716C472.812 443.395 473.404 443.074 473.992 443.074H501.129C501.718 443.074 502.307 443.395 502.307 443.716L502.898 455.232C502.602 455.871 502.014 455.871 501.422 455.871Z" fill="#333333"/>
<path d="M537.111 455.871H509.681C509.092 455.871 508.501 455.55 508.501 455.232L507.912 443.716C507.912 443.395 508.501 443.074 509.092 443.074H536.226C536.818 443.074 537.406 443.395 537.406 443.716L538.586 455.232C538.291 455.871 537.702 455.871 537.111 455.871Z" fill="#333333"/>
<path d="M572.798 455.871H545.368C544.776 455.871 544.188 455.55 544.188 455.232L543.008 443.716C543.008 443.395 543.599 443.074 544.188 443.074H571.322C571.913 443.074 572.502 443.395 572.502 443.716L574.273 455.232C573.978 455.871 573.682 455.871 572.798 455.871Z" fill="#333333"/>
<path d="M608.782 455.871H581.352C580.76 455.871 580.172 455.55 579.876 455.232L578.107 443.716C578.107 443.395 578.696 443.074 579.287 443.074H606.421C607.013 443.074 607.602 443.395 607.602 443.716L609.962 455.232C609.962 455.871 609.37 455.871 608.782 455.871Z" fill="#333333"/>
<path d="M653.62 473.143H632.091C629.435 473.143 627.075 472.183 626.782 470.902L625.895 467.383C625.602 466.102 627.666 465.145 630.319 465.145H651.556C654.212 465.145 656.572 466.102 657.161 467.383L658.045 470.902C658.341 472.183 656.572 473.143 653.62 473.143Z" fill="#333333"/>
<path d="M690.48 473.143H668.948C666.295 473.143 663.639 472.183 663.346 470.902L662.459 467.383C662.166 466.102 663.935 465.145 666.884 465.145H688.12C690.776 465.145 693.429 466.102 693.725 467.383L694.905 470.902C695.201 472.183 693.136 473.143 690.48 473.143Z" fill="#333333"/>
<path d="M687.821 464.505H666.585C663.932 464.505 661.572 463.545 660.983 462.264L660.096 458.745C659.803 457.467 661.572 456.507 664.228 456.507H685.168C687.821 456.507 690.182 457.467 690.77 458.745L691.95 462.264C692.246 463.545 690.477 464.505 687.821 464.505Z" fill="#333333"/>
<path d="M727.356 473.143H705.824C703.171 473.143 700.515 472.183 700.222 470.902L699.042 467.383C698.746 466.102 700.515 465.145 703.171 465.145H724.407C727.063 465.145 729.716 466.102 730.012 467.383L731.192 470.902C731.781 472.183 730.012 473.143 727.356 473.143Z" fill="#333333"/>
<path d="M342.733 441.474H315.895C315.303 441.474 314.715 441.153 314.715 440.835L317.368 429.637C317.368 429.319 317.959 428.998 318.548 428.998H345.093C345.685 428.998 346.274 429.319 346.274 429.637L344.209 440.835C344.209 441.153 343.62 441.474 342.733 441.474Z" fill="#333333"/>
<path d="M378.128 441.474H351.289C350.698 441.474 350.109 441.153 350.109 440.835L352.174 429.637C352.174 429.319 352.762 428.998 353.354 428.998H379.899C380.488 428.998 381.079 429.319 381.079 429.637L379.604 440.835C379.308 441.153 378.719 441.474 378.128 441.474Z" fill="#333333"/>
<path d="M413.522 441.474H386.681C386.092 441.474 385.504 441.153 385.504 440.835L386.977 429.637C386.977 429.319 387.568 428.998 388.157 428.998H414.702C415.294 428.998 415.882 429.319 415.882 429.637L414.998 440.835C414.702 441.153 414.114 441.474 413.522 441.474Z" fill="#333333"/>
<path d="M448.623 441.474H421.782C421.193 441.474 420.601 441.153 420.601 440.835L421.486 429.637C421.486 429.319 422.077 428.998 422.666 428.998H449.211C449.803 428.998 450.391 429.319 450.391 429.637L450.096 440.835C449.803 441.153 449.211 441.474 448.623 441.474Z" fill="#333333"/>
<path d="M483.718 441.474H456.876C456.288 441.474 455.699 441.153 455.699 440.835L455.992 429.637C455.992 429.319 456.583 428.998 457.172 428.998H483.718C484.309 428.998 484.898 429.319 484.898 429.637L485.193 440.835C484.898 441.153 484.602 441.474 483.718 441.474Z" fill="#333333"/>
<path d="M517.638 441.474H490.8C490.208 441.474 489.62 441.153 489.62 440.835L489.324 429.637C489.324 429.319 489.915 428.998 490.504 428.998H517.05C517.638 428.998 518.23 429.319 518.23 429.637L519.114 440.835C518.818 441.153 518.23 441.474 517.638 441.474Z" fill="#333333"/>
<path d="M552.745 441.474H525.904C525.313 441.474 524.724 441.153 524.724 440.835L523.84 429.637C523.84 429.319 524.428 428.998 525.02 428.998H551.565C552.154 428.998 552.745 429.319 552.745 429.637L554.218 440.835C553.923 441.153 553.334 441.474 552.745 441.474Z" fill="#333333"/>
<path d="M587.541 441.474H560.703C560.111 441.474 559.523 441.153 559.523 440.835L558.047 429.637C558.047 429.319 558.638 428.998 559.227 428.998H585.772C586.361 428.998 586.952 429.319 586.952 429.637L589.017 440.835C588.721 441.153 588.132 441.474 587.541 441.474Z" fill="#333333"/>
<path d="M622.349 441.474H595.508C594.919 441.474 594.328 441.153 594.328 440.835L592.264 429.637C592.264 429.319 592.559 428.998 593.444 428.998H619.989C620.581 428.998 621.169 429.319 621.169 429.637L623.825 440.835C623.529 441.153 622.941 441.474 622.349 441.474Z" fill="#333333"/>
<path d="M657.157 441.474H630.315C629.727 441.474 629.138 441.153 628.842 440.835L626.186 429.637C626.186 429.319 626.482 428.998 627.366 428.998H653.912C654.503 428.998 655.092 429.319 655.388 429.637L658.632 440.835C658.337 441.153 657.748 441.474 657.157 441.474Z" fill="#333333"/>
<path d="M644.181 455.871H616.751C616.162 455.871 615.571 455.55 615.275 455.232L612.918 443.716C612.918 443.395 613.211 443.074 614.098 443.074H641.232C641.823 443.074 642.412 443.395 642.708 443.716L645.657 455.232C645.361 455.871 644.772 455.871 644.181 455.871Z" fill="#333333"/>
<path d="M718.791 441.476H666.88C665.996 441.476 665.112 441.155 665.112 440.837L661.867 429.959C661.867 429.638 662.456 429.32 663.34 429.32H714.074C714.958 429.32 715.842 429.638 715.842 429.959L719.971 440.837C720.267 441.155 719.676 441.476 718.791 441.476Z" fill="#333333"/>
<path d="M723.816 455.871H652.438C651.258 455.871 650.373 455.55 650.373 454.911L647.422 444.034C647.422 443.716 648.013 443.074 649.193 443.074H719.096C720.276 443.074 721.16 443.395 721.456 444.034L725.585 454.911C725.585 455.55 724.993 455.871 723.816 455.871Z" fill="#333333"/>
<path d="M272.532 441.476H220.03C219.145 441.476 218.557 441.155 218.557 440.837L222.685 429.959C222.685 429.638 223.57 429.32 224.454 429.32H276.069C276.957 429.32 277.545 429.638 277.545 429.959L274.301 440.837C274.301 441.155 273.416 441.476 272.532 441.476Z" fill="#333333"/>
<path d="M286.401 455.871H214.137C212.957 455.871 212.367 455.55 212.367 454.911L216.496 444.034C216.791 443.716 217.676 443.074 218.856 443.074H289.938C291.118 443.074 291.71 443.395 291.71 444.034L288.758 454.911C288.465 455.55 287.578 455.871 286.401 455.871Z" fill="#333333"/>
<path d="M337.725 427.396H311.475C310.883 427.396 310.295 427.075 310.295 426.757L312.948 416.2C312.948 415.88 313.539 415.879 314.128 415.879H340.085C340.674 415.879 341.265 416.2 341.265 416.2L339.2 426.757C338.905 427.075 338.316 427.396 337.725 427.396Z" fill="#333333"/>
<path d="M371.637 427.396H345.387C344.796 427.396 344.207 427.075 344.207 426.757L346.271 416.2C346.271 415.88 346.86 415.879 347.451 415.879H373.406C373.997 415.879 374.586 416.2 374.586 416.2L373.113 426.757C373.113 427.075 372.521 427.396 371.637 427.396Z" fill="#333333"/>
<path d="M406.152 427.396H379.9C379.311 427.396 378.723 427.075 378.723 426.757L380.196 416.2C380.196 415.88 380.787 415.879 381.376 415.879H407.332C407.921 415.879 408.513 416.2 408.513 416.2L407.625 426.757C407.332 427.075 406.741 427.396 406.152 427.396Z" fill="#333333"/>
<path d="M440.666 427.396H414.416C413.828 427.396 413.236 427.075 413.236 426.757L414.121 416.2C414.121 415.88 414.712 415.879 415.301 415.879H441.257C441.846 415.879 442.438 416.2 442.438 416.2L442.142 426.757C441.846 427.075 441.257 427.396 440.666 427.396Z" fill="#333333"/>
<path d="M474.576 427.396H448.326C447.738 427.396 447.146 427.075 447.146 426.757L447.442 416.2C447.442 415.88 448.031 415.879 448.622 415.879H474.576C475.168 415.879 475.756 416.2 475.756 416.2V426.757C476.052 427.075 475.463 427.396 474.576 427.396Z" fill="#333333"/>
<path d="M508.212 427.396H481.962C481.371 427.396 480.782 427.075 480.782 426.757L480.486 416.2C480.486 415.88 481.078 415.879 481.666 415.879H507.623C508.212 415.879 508.803 416.2 508.803 416.2L509.392 426.757C509.392 427.075 508.803 427.396 508.212 427.396Z" fill="#333333"/>
<path d="M542.714 427.396H516.461C515.872 427.396 515.281 427.075 515.281 426.757L514.396 416.2C514.396 415.88 514.988 415.879 515.576 415.879H541.534C542.123 415.879 542.714 416.2 542.714 416.2L543.893 426.757C543.893 427.075 543.599 427.396 542.714 427.396Z" fill="#333333"/>
<path d="M576.928 427.396H550.678C550.09 427.396 549.498 427.075 549.498 426.757L548.318 416.2C548.318 415.88 548.91 415.879 549.498 415.879H575.455C576.044 415.879 576.632 416.2 576.632 416.2L578.404 426.757C578.108 427.075 577.812 427.396 576.928 427.396Z" fill="#333333"/>
<path d="M610.845 427.396H584.299C583.711 427.396 583.119 427.075 583.119 426.757L581.35 416.2C581.35 415.88 581.646 415.879 582.531 415.879H608.485C609.076 415.879 609.665 416.2 609.665 416.2L612.025 426.757C611.729 427.075 611.436 427.396 610.845 427.396Z" fill="#333333"/>
<path d="M645.952 427.396H619.702C619.111 427.396 618.522 427.075 618.522 426.757L616.162 416.2C616.162 415.88 616.458 415.879 617.342 415.879H643.296C643.888 415.879 644.476 416.2 644.476 416.2L647.428 426.757C646.836 427.075 646.541 427.396 645.952 427.396Z" fill="#333333"/>
<path d="M679.276 427.396H653.026C652.435 427.396 651.846 427.075 651.846 426.757L648.895 416.2C648.895 415.88 649.191 415.879 650.075 415.879H676.031C676.62 415.879 677.211 416.2 677.211 416.2L680.75 426.757C680.457 427.075 680.16 427.396 679.276 427.396Z" fill="#333333"/>
<path d="M713.788 427.396H687.536C686.947 427.396 686.355 427.075 686.062 426.757L682.521 416.2C682.521 415.88 682.817 415.879 683.406 415.879H709.364C709.952 415.879 710.543 416.2 710.836 416.2L714.966 426.757C714.966 427.075 714.673 427.396 713.788 427.396Z" fill="#333333"/>
<path d="M289.642 413.963H263.688C263.096 413.963 262.508 413.642 262.803 413.642L266.048 403.407C266.048 403.086 266.637 403.086 267.228 403.086H292.593C293.182 403.086 293.773 403.407 293.478 403.407L290.529 413.642C290.822 413.642 290.233 413.963 289.642 413.963Z" fill="#333333"/>
<path d="M322.68 413.963H296.723C296.134 413.963 295.543 413.642 295.543 413.642L298.199 403.407C298.199 403.086 298.787 403.086 299.379 403.086H324.744C325.333 403.086 325.924 403.407 325.924 403.407L323.564 413.642C324.153 413.642 323.564 413.963 322.68 413.963Z" fill="#333333"/>
<path d="M356.898 413.963H330.944C330.352 413.963 329.764 413.642 329.764 413.642L332.121 403.407C332.121 403.086 332.712 403.086 333.301 403.086H358.669C359.258 403.086 359.847 403.407 359.847 403.407L358.078 413.642C358.078 413.642 357.489 413.963 356.898 413.963Z" fill="#333333"/>
<path d="M389.93 413.963H363.973C363.384 413.963 362.793 413.642 362.793 413.642L364.564 403.407C364.564 403.086 365.153 403.086 365.744 403.086H391.11C391.698 403.086 392.29 403.407 392.29 403.407L391.11 413.642C391.11 413.642 390.518 413.963 389.93 413.963Z" fill="#333333"/>
<path d="M424.146 413.963H398.192C397.6 413.963 397.012 413.642 397.012 413.642L398.192 403.407C398.192 403.086 398.78 403.086 399.372 403.086H424.737C425.326 403.086 425.917 403.407 425.917 403.407L425.326 413.642C425.326 413.642 424.737 413.963 424.146 413.963Z" fill="#333333"/>
<path d="M456.883 413.963H430.926C430.337 413.963 429.746 413.642 429.746 413.642L430.337 403.407C430.337 403.086 430.926 403.086 431.515 403.086H456.883C457.471 403.086 458.06 403.407 458.06 403.407L457.767 413.642C458.06 413.642 457.471 413.963 456.883 413.963Z" fill="#333333"/>
<path d="M491.102 413.963H465.145C464.556 413.963 463.965 413.642 463.965 413.642V403.407C463.965 403.086 464.556 403.086 465.145 403.086H490.51C491.102 403.086 491.69 403.407 491.69 403.407L491.986 413.642C491.986 413.642 491.69 413.963 491.102 413.963Z" fill="#333333"/>
<path d="M524.128 413.963H498.174C497.582 413.963 496.994 413.642 496.994 413.642L496.402 403.407C496.402 403.086 496.994 403.086 497.582 403.086H522.95C523.539 403.086 524.128 403.407 524.128 403.407L525.015 413.642C525.308 413.642 524.719 413.963 524.128 413.963Z" fill="#333333"/>
<path d="M558.048 413.963H532.092C531.503 413.963 530.912 413.642 530.912 413.642L530.027 403.407C530.027 403.086 530.616 403.086 531.207 403.086H556.573C557.161 403.086 557.753 403.407 557.753 403.407L559.229 413.642C559.229 413.642 558.637 413.963 558.048 413.963Z" fill="#333333"/>
<path d="M591.975 413.963H566.021C565.43 413.963 564.841 413.642 564.841 413.642L563.365 403.407C563.365 403.086 563.956 403.086 564.545 403.086H589.911C590.499 403.086 591.091 403.407 591.091 403.407L593.155 413.642C593.155 413.642 592.859 413.963 591.975 413.963Z" fill="#333333"/>
<path d="M625.596 413.963H599.641C599.05 413.963 598.461 413.642 598.461 413.642L596.396 403.407C596.396 403.086 596.692 403.086 597.576 403.086H622.943C623.532 403.086 624.122 403.407 624.122 403.407L626.776 413.642C626.776 413.642 626.187 413.963 625.596 413.963Z" fill="#333333"/>
<path d="M658.032 413.963H632.078C631.487 413.963 630.898 413.642 630.898 413.642L628.242 403.407C628.242 403.086 628.538 403.086 629.126 403.086H654.492C655.083 403.086 655.672 403.407 655.672 403.407L658.623 413.642C659.212 413.642 658.623 413.963 658.032 413.963Z" fill="#333333"/>
<path d="M706.407 413.962H667.771C665.999 413.962 664.23 413.323 664.23 412.684L661.577 404.044C661.281 403.405 662.754 402.766 664.23 402.766H702.278C704.05 402.766 705.523 403.405 705.819 404.044L709.063 412.684C709.359 413.323 708.179 413.962 706.407 413.962Z" fill="#333333"/>
<path d="M266.341 427.396H226.818C225.049 427.396 223.869 426.757 224.164 426.118L227.409 417.16C227.705 416.518 229.473 415.879 231.242 415.879H269.882C271.65 415.879 272.831 416.518 272.831 417.16L270.177 426.118C269.882 426.757 268.113 427.396 266.341 427.396Z" fill="#333333"/>
<path d="M321.5 355.099H244.519V369.817H321.5V355.099Z" fill="#333333"/>
<path d="M691.956 354.781H614.973V369.817H691.956V354.781Z" fill="#333333"/>
<path d="M567.489 536.167L560.411 482.421C560.115 479.862 558.051 477.942 555.691 477.942H387.569C384.916 477.942 382.555 480.183 382.26 483.06L374.297 536.485C374.002 538.726 375.477 540.646 377.542 540.646H470.745V508.013H475.466V540.646H563.656C566.013 540.646 567.489 538.726 567.489 536.167Z" fill="#333333"/>
<path d="M0 509.939L77.5721 435.398C77.5721 435.398 84.0611 428.681 91.4341 429.32C94.0891 429.641 101.463 429.641 105.002 429.641C121.224 430.919 146.885 428.36 146.885 428.36C147.18 428.36 147.475 428.681 147.475 428.681C148.065 429.002 148.065 429.002 148.36 429.641C148.95 430.919 149.245 432.839 149.245 434.441C149.245 435.398 149.245 436.679 148.655 437.639C148.36 438.599 147.77 439.238 147.18 440.198C146.295 441.157 84.0611 520.175 84.0611 520.496C84.0611 520.496 79.9311 526.574 71.9681 526.253C64.0041 526.253 3.8343 517.937 3.8343 517.937C3.8343 517.937 1.1798 516.017 0 509.939Z" fill="#363636"/>
<path d="M4.135 502.892L73.4481 430.912C73.4481 430.912 79.0521 423.235 86.7211 423.874C89.3761 424.195 99.4041 424.834 103.238 425.155C119.46 426.433 144.531 427.714 144.531 427.714C144.531 427.714 151.905 428.032 146.891 434.113C139.812 442.429 82.2971 516.007 82.2971 516.007C82.2971 516.007 78.1671 522.088 70.2041 521.767C69.3191 521.767 8.2643 514.408 5.9047 514.09C5.3149 514.09 4.4299 513.769 3.8402 513.769C2.3654 513.448 1.48051 513.13 0.595605 511.849C-1.17399 508.331 2.0703 504.812 4.135 502.892Z" fill="#4C4CD2"/>
<path d="M41.2956 513.769C39.8209 515.371 36.8712 516.649 34.8067 516.328C32.7419 516.01 32.447 514.09 33.9218 512.491C35.3965 510.892 38.3462 509.611 40.4107 510.25C42.1806 510.571 42.7703 512.17 41.2956 513.769Z" fill="white"/>
<path d="M110.611 430.276C110.316 430.915 109.136 431.236 108.546 430.915C107.661 430.915 107.366 430.276 107.661 429.955C107.956 429.316 109.136 428.998 109.726 429.316C110.906 429.316 111.201 429.637 110.611 430.276Z" fill="#493B88"/>
<path d="M71.9781 438.915L75.5181 435.076C75.5181 435.076 79.0571 431.557 79.9421 431.239C80.8271 430.918 80.8271 430.279 87.0201 430.597L135.687 434.758C135.687 434.758 138.342 434.758 138.932 435.397C139.227 435.718 138.342 437.317 136.572 439.236L83.7761 504.178C83.7761 504.178 80.5321 508.975 76.1071 509.935C76.1071 509.935 74.3381 510.895 69.6181 510.574L15.053 504.817C15.053 504.817 9.44874 504.817 11.2186 502.576C12.9882 500.338 30.3902 481.784 30.3902 481.784L71.9781 438.915Z" fill="#363636"/>
<path d="M64.6023 446.59L56.0493 455.548L128.901 449.47L135.98 440.512L64.6023 446.59Z" fill="#9797FF"/>
<path d="M53.988 457.788L51.334 460.989L123.597 455.55L125.956 452.671L53.988 457.788Z" fill="#9797FF"/>
<path d="M18.8791 495.217L16.2246 498.097L91.4371 495.217L94.3861 491.38L18.8791 495.217Z" fill="#9797FF"/>
<path d="M23.5996 490.097L98.8121 486.257L104.121 479.861L28.9087 484.34L23.5996 490.097Z" fill="#9797FF"/>
<path d="M881.908 483.704C878.368 479.225 874.534 475.067 870.698 470.909C862.736 462.27 854.771 453.633 845.629 446.595C835.01 437.959 822.328 437.959 809.941 442.437C805.22 444.036 799.911 445.956 796.078 449.475C795.191 450.435 794.602 451.395 794.014 452.352C798.436 468.99 812.005 482.744 823.212 493.943C830.881 501.62 837.075 504.817 846.809 508.336C863.032 513.775 877.779 509.617 889.577 499.382C889.281 495.221 887.513 491.702 886.921 490.424C885.741 487.862 883.677 485.945 881.908 483.704Z" fill="#9797FF"/>
<path d="M846.806 508.336C837.075 504.817 830.879 501.617 823.212 493.94C812.002 482.744 798.435 469.308 794.011 452.352C792.831 454.59 792.242 457.149 791.946 459.39C791.651 463.548 793.422 468.027 795.779 471.867C797.551 474.746 799.32 477.623 800.796 479.864C802.86 483.062 805.22 486.263 807.578 489.14C820.852 506.095 841.792 527.851 864.209 522.091C886.037 516.334 889.87 506.416 889.279 499.058C877.776 509.614 863.029 513.775 846.806 508.336Z" fill="#363636"/>
<path d="M819.065 448.112C819.795 449.655 821.252 450.427 821.981 451.198C822.711 451.97 829.274 458.148 830.001 455.833C830.73 451.198 826.357 445.795 822.711 444.252C821.981 443.477 819.795 442.706 819.065 443.477C816.879 445.023 818.335 446.566 819.065 448.112Z" fill="#363636"/>
<path d="M704.045 24.948H233.012V49.262H704.045V24.948Z" fill="#4B4BD8"/>
<path d="M704.045 300.077H233.012V318.31H704.045V300.077Z" fill="#4B4BD8"/>
<path d="M690.481 32.949H681.928V41.585H690.481V32.949Z" fill="white"/>
<path d="M676.915 32.949H668.361V41.585H676.915V32.949Z" fill="white"/>
<path d="M663.352 32.949H654.799V41.585H663.352V32.949Z" fill="white"/>
<path d="M417.537 194.654H397.377V221.15H387.009V194.654H330.129V187.166L383.553 120.35H395.073L343.521 185.438H387.297V162.11H397.377V185.438H417.537V194.654ZM467.236 222.014C459.46 222.014 452.5 219.95 446.356 215.822C440.308 211.694 435.556 205.79 432.1 198.11C428.74 190.334 427.06 181.214 427.06 170.75C427.06 160.286 428.74 151.214 432.1 143.534C435.556 135.758 440.308 129.806 446.356 125.678C452.5 121.55 459.46 119.486 467.236 119.486C475.012 119.486 481.924 121.55 487.972 125.678C494.116 129.806 498.916 135.758 502.372 143.534C505.828 151.214 507.556 160.286 507.556 170.75C507.556 181.214 505.828 190.334 502.372 198.11C498.916 205.79 494.116 211.694 487.972 215.822C481.924 219.95 475.012 222.014 467.236 222.014ZM467.236 212.51C473.092 212.51 478.228 210.878 482.644 207.614C487.156 204.35 490.66 199.598 493.156 193.358C495.652 187.118 496.9 179.582 496.9 170.75C496.9 161.918 495.652 154.382 493.156 148.142C490.66 141.902 487.156 137.15 482.644 133.886C478.228 130.622 473.092 128.99 467.236 128.99C461.38 128.99 456.196 130.622 451.684 133.886C447.268 137.15 443.812 141.902 441.316 148.142C438.82 154.382 437.572 161.918 437.572 170.75C437.572 179.582 438.82 187.118 441.316 193.358C443.812 199.598 447.268 204.35 451.684 207.614C456.196 210.878 461.38 212.51 467.236 212.51ZM608.084 194.654H587.924V221.15H577.556V194.654H520.676V187.166L574.1 120.35H585.62L534.068 185.438H577.844V162.11H587.924V185.438H608.084V194.654Z" fill="black"/>
</svg>
