<?xml version="1.0" encoding="UTF-8"?>
<svg width="16px" height="30px" viewBox="0 0 16 30" version="1.1" xmlns="http://www.w3.org/2000/svg" xmlns:xlink="http://www.w3.org/1999/xlink">
    <!-- Generator: Sketch 60 (88103) - https://sketch.com -->
    <title>arrowRightMaincolor</title>
    <desc>Created with Sketch.</desc>
    <g id="Page-1" stroke="none" stroke-width="1" fill="none" fill-rule="evenodd">
        <g id="arrowRightMaincolor" fill="#4B4BD8">
            <polygon id="Path" points="13.1578 15.0004 0.4447 27.7135 1.859 29.1277 16.0011 14.9856 14.5869 13.5714 14.5721 13.5862 1.7078 0.72197 0.2936 2.13618"></polygon>
        </g>
    </g>
</svg>