<svg width="30" height="30" viewBox="0 0 30 30" fill="none" xmlns="http://www.w3.org/2000/svg">
<path fill-rule="evenodd" clip-rule="evenodd" d="M6.02621 2H26.0262V28H6.02621V25.4473H8V23.4473H6.02621V19.1318H8V17.1318H6.02621V12.8159H8V10.8159H6.02621V6.5H8V4.5H6.02621V2ZM4.02621 23.4473V19.1318H2V17.1318H4.02621V12.8159H2V10.8159H4.02621V6.5H2V4.5H4.02621V2V0H6.02621H26.0262H28.0262V2V28V30H26.0262H6.02621H4.02621V28V25.4473H2V23.4473H4.02621ZM16.6572 14.9151C14.7226 14.9151 13.1476 13.3395 13.1476 11.4049C13.147 9.46964 14.7219 7.89468 16.6572 7.89468C18.5931 7.89468 20.168 9.469 20.168 11.4049C20.168 13.3408 18.5931 14.9151 16.6572 14.9151ZM16.6572 9.17461C15.4272 9.17461 14.4269 10.1749 14.4269 11.4049C14.4269 12.6349 15.4272 13.6352 16.6572 13.6352C17.8878 13.6352 18.8881 12.6349 18.8881 11.4049C18.8881 10.1749 17.8866 9.17461 16.6572 9.17461ZM21.976 20.5261H20.696C20.696 18.3669 18.8849 16.6108 16.6572 16.6108C14.4295 16.6108 12.619 18.3675 12.619 20.5261H11.3391C11.3391 17.6603 13.7255 15.3309 16.6578 15.3309C19.5895 15.3309 21.976 17.6603 21.976 20.5261Z" fill="#4B4BD8"/>
</svg>
