<svg width="96" height="89" viewBox="0 0 96 89" fill="none" xmlns="http://www.w3.org/2000/svg">
<path d="M42.24 54.76V28.84C42.24 27.48 42.28 26.04 42.36 24.52C42.48 22.96 42.64 21.34 42.84 19.66L17.64 54.76H42.24ZM66.72 54.76V64.12C66.72 65 66.42 65.76 65.82 66.4C65.26 67 64.46 67.3 63.42 67.3H56.64V88H42.24V67.3H6.3C5.26 67.3 4.3 66.98 3.42 66.34C2.58 65.7 2.06 64.86 1.86 63.82L0.12 55.54L40.92 0.879999H56.64V54.76H66.72Z" fill="black" fill-opacity="0.05"/>
<path d="M90.7497 47.891L88.8075 40.1222C89.3385 40.0094 89.7369 39.5383 89.7369 38.9739V37.7213C89.7369 35.0017 87.5243 32.7892 84.8048 32.7892H75.9583V30.2055C75.9583 28.8672 74.8696 27.7786 73.5313 27.7786H28.4373C27.099 27.7786 26.0104 28.8672 26.0104 30.2055V51.5C26.0104 52.1484 26.5361 52.6743 27.1847 52.6743C27.8332 52.6743 28.3591 52.1486 28.3591 51.5V30.2055C28.3591 30.1623 28.3941 30.1273 28.4373 30.1273H73.5312C73.5744 30.1273 73.6094 30.1623 73.6094 30.2055V51.5002C73.6094 52.1487 74.1352 52.6746 74.7838 52.6746C75.4323 52.6746 75.9581 52.1489 75.9581 51.5002V50.169H89.811C89.8122 50.169 89.8131 50.1693 89.8141 50.1693C89.8153 50.1693 89.8163 50.1691 89.8173 50.1691C91.522 50.1703 92.9694 51.2892 93.4665 52.8309H89.815C89.1665 52.8309 88.6406 53.3566 88.6406 54.0053V56.5105C88.6406 58.5394 90.2912 60.19 92.3202 60.19H93.6511V65.3569H90.5805C89.5718 62.4444 86.8031 60.3464 83.5519 60.3464C80.3007 60.3464 77.5318 62.4444 76.5233 65.3569H75.9579V56.5103C75.9579 55.8618 75.4321 55.3359 74.7835 55.3359C74.135 55.3359 73.6091 55.8617 73.6091 56.5103V65.3566H49.2447C48.236 62.4441 45.4673 60.3461 42.2161 60.3461C38.9648 60.3461 36.196 62.4441 35.1874 65.3566H28.4373C28.3941 65.3566 28.3591 65.3216 28.3591 65.2784V62.6949H33.4478C34.0963 62.6949 34.6222 62.1691 34.6222 61.5205C34.6222 60.8719 34.0964 60.3461 33.4478 60.3461H22.1744C21.5259 60.3461 21 60.8719 21 61.5205C21 62.1691 21.5257 62.6949 22.1744 62.6949H26.0105V65.2784C26.0105 66.6167 27.0992 67.7054 28.4375 67.7054H34.7808C34.7805 67.7315 34.7788 67.7574 34.7788 67.7836C34.7788 71.8846 38.1152 75.2209 42.2161 75.2209C46.3169 75.2209 49.6534 71.8846 49.6534 67.7836C49.6534 67.7572 49.6516 67.7315 49.6513 67.7054H76.1166C76.1164 67.7315 76.1146 67.7574 76.1146 67.7836C76.1146 71.8846 79.4511 75.2209 83.5519 75.2209C87.6527 75.2209 90.9892 71.8846 90.9892 67.7836C90.9892 67.7572 90.9874 67.7315 90.9872 67.7054H94.8255C95.474 67.7054 95.9998 67.1796 95.9998 66.531V54.005C96 50.9124 93.7182 48.3429 90.7497 47.891ZM75.9583 35.1378H84.8048C86.2293 35.1378 87.3883 36.2968 87.3883 37.7213V37.7996H75.9583V35.1378ZM75.9583 47.8204V40.1481H86.3931L88.3112 47.8204H75.9583ZM42.2161 72.8726C39.4102 72.8726 37.1273 70.59 37.1273 67.7839C37.1273 64.9778 39.4102 62.6952 42.2161 62.6952C45.022 62.6952 47.3048 64.9778 47.3048 67.7839C47.3048 70.59 45.022 72.8726 42.2161 72.8726ZM83.5522 72.8726C80.7463 72.8726 78.4635 70.59 78.4635 67.7839C78.4635 64.9778 80.7463 62.6952 83.5522 62.6952C86.3581 62.6952 88.6409 64.9778 88.6409 67.7839C88.6409 70.59 86.3581 72.8726 83.5522 72.8726ZM93.6514 57.8413H92.3204C91.5866 57.8413 90.9895 57.2442 90.9895 56.5103V55.1793H93.6513V57.8413H93.6514Z" fill="#4B4BD8"/>
<path d="M42.216 65.357C40.8777 65.357 39.7891 66.4457 39.7891 67.784C39.7891 69.1222 40.8777 70.2109 42.216 70.2109C43.5543 70.2109 44.643 69.1222 44.643 67.784C44.643 66.4457 43.5543 65.357 42.216 65.357Z" fill="#4B4BD8"/>
<path d="M83.552 65.357C82.2137 65.357 81.125 66.4457 81.125 67.784C81.125 69.1222 82.2137 70.2109 83.552 70.2109C84.8902 70.2109 85.9789 69.1222 85.9789 67.784C85.9789 66.4457 84.8902 65.357 83.552 65.357Z" fill="#4B4BD8"/>
<path d="M69.7734 60.3466H52.2369C51.5884 60.3466 51.0625 60.8723 51.0625 61.5209C51.0625 62.1696 51.5882 62.6953 52.2369 62.6953H69.7734C70.4219 62.6953 70.9477 62.1696 70.9477 61.5209C70.9477 60.8723 70.422 60.3466 69.7734 60.3466Z" fill="#4B4BD8"/>
<path d="M39.7116 55.3362H24.6802C24.0317 55.3362 23.5059 55.8619 23.5059 56.5105C23.5059 57.1592 24.0316 57.6849 24.6802 57.6849H39.7116C40.3601 57.6849 40.8859 57.1592 40.8859 56.5105C40.8859 55.8619 40.3601 55.3362 39.7116 55.3362Z" fill="#4B4BD8"/>
<path d="M61.8361 39.3959C61.3776 38.9374 60.6339 38.9374 60.1754 39.3961L49.7323 49.8391L44.2996 44.4064C43.841 43.9478 43.0974 43.9478 42.6389 44.4064C42.1803 44.8651 42.1803 45.6085 42.6389 46.0671L48.902 52.3302C49.1312 52.5596 49.4318 52.6741 49.7323 52.6741C50.0327 52.6741 50.3334 52.5596 50.5625 52.3302L61.836 41.0568C62.2946 40.598 62.2946 39.8546 61.8361 39.3959Z" fill="#4B4BD8"/>
</svg>
