<svg width="113" height="16" viewBox="0 0 113 16" fill="none" xmlns="http://www.w3.org/2000/svg">
<path d="M8.25414 15.6882L3.56034 3.43046H3.44033C3.60924 5.92401 3.6937 7.5876 3.6937 8.4212V15.6882H0V0.0641203H5.62722L10.241 12.0119H10.321L15.2148 0.0641203H20.842V15.6882H16.9883V8.29295C16.9883 7.94386 16.9928 7.54131 17.0017 7.08531C17.0194 6.62935 17.0817 5.41821 17.1883 3.45183H17.0684L12.0412 15.6882H8.25414ZM38.5163 15.6882L37.1028 11.9692H29.9954L28.582 15.6882H24.1282L31.0089 0H36.0627L42.97 15.6882H38.5163ZM36.1161 9.19062C34.8092 5.8207 34.0714 3.91492 33.9025 3.4732C33.7425 3.03148 33.6269 2.68238 33.5558 2.4259C33.2624 3.33784 32.4223 5.59275 31.0356 9.19062H36.1161ZM50.39 6.99984H51.7234C53.0302 6.99984 53.9947 6.82529 54.617 6.4762C55.2394 6.12706 55.5505 5.57847 55.5505 4.83042C55.5505 4.08947 55.2304 3.56226 54.5903 3.24878C53.9592 2.9353 52.9769 2.77856 51.6434 2.77856H50.39V6.99984ZM50.39 9.69292V15.6882H46.2562V0.0641203H51.9368C54.5859 0.0641203 56.5461 0.452408 57.8174 1.22898C59.0886 1.99843 59.7242 3.17041 59.7242 4.74493C59.7242 5.664 59.4086 6.48332 58.7775 7.20289C58.1463 7.91535 57.2529 8.47461 56.0972 8.88071C59.0308 12.3931 60.9421 14.6622 61.8311 15.6882H57.244L52.5902 9.69292H50.39ZM80.7852 15.6882H76.0915L70.9846 9.10516L69.2375 10.1097V15.6882H65.104V0.0641203H69.2375V7.21356L70.8644 5.37542L76.1447 0.0641203H80.732L73.9313 6.97844L80.7852 15.6882ZM95.2858 15.6882H84.0583V0.0641203H95.2858V2.77856H88.1922V6.20902H94.7929V8.92344H88.1922V12.9524H95.2858V15.6882ZM107.707 15.6882H103.573V2.82131H98.2789V0.0641203H113V2.82131H107.707V15.6882Z" fill="white"/>
</svg>
