<svg width="24" height="24" viewBox="0 0 24 24" fill="none" xmlns="http://www.w3.org/2000/svg">
<path fill-rule="evenodd" clip-rule="evenodd" d="M11 13V24H13V13L24 13V11L13 11V0H11V11L0 11V13L11 13Z" fill="#4B4BD8"/>
</svg>
