<svg width="30" height="30" viewBox="0 0 30 30" fill="none" xmlns="http://www.w3.org/2000/svg">
<path d="M21.3048 18.4272C21.0361 18.1866 20.6233 18.21 20.384 18.4781C19.0235 19.9983 17.0618 20.8696 15.0003 20.8696C12.9394 20.8696 10.977 19.9983 9.61656 18.4781C9.37591 18.21 8.96439 18.1866 8.69569 18.4272C8.427 18.6672 8.40482 19.0794 8.64482 19.3481C10.2524 21.1442 12.569 22.174 15.0003 22.174C17.4322 22.174 19.7487 21.1435 21.3557 19.3481C21.5957 19.0794 21.5729 18.6672 21.3048 18.4272Z" fill="black"/>
<path d="M15 0C6.72913 0 0 6.72913 0 15C0 23.2709 6.72913 30 15 30C23.2709 30 30 23.2709 30 15C30 6.72913 23.2709 0 15 0ZM15 28.6957C7.44783 28.6957 1.30435 22.5522 1.30435 15C1.30435 7.44783 7.44783 1.30435 15 1.30435C22.5522 1.30435 28.6957 7.44783 28.6957 15C28.6957 22.5522 22.5522 28.6957 15 28.6957Z" fill="black"/>
<path d="M20.2179 10.4348C18.4199 10.4348 16.957 11.8976 16.957 13.6956C16.957 14.0556 17.2492 14.3478 17.6092 14.3478C17.9692 14.3478 18.2614 14.0556 18.2614 13.6956C18.2614 12.6169 19.1392 11.7391 20.2179 11.7391C21.2966 11.7391 22.1744 12.6169 22.1744 13.6956C22.1744 14.0556 22.4666 14.3478 22.8266 14.3478C23.1866 14.3478 23.4788 14.0556 23.4788 13.6956C23.4788 11.8976 22.0159 10.4348 20.2179 10.4348Z" fill="black"/>
<path d="M11.7389 13.6956C11.7389 14.0556 12.031 14.3478 12.391 14.3478C12.751 14.3478 13.0432 14.0556 13.0432 13.6956C13.0432 11.8976 11.5804 10.4348 9.78235 10.4348C7.98431 10.4348 6.52148 11.8976 6.52148 13.6956C6.52148 14.0556 6.81366 14.3478 7.17366 14.3478C7.53366 14.3478 7.82583 14.0556 7.82583 13.6956C7.82583 12.6169 8.70366 11.7391 9.78235 11.7391C10.861 11.7391 11.7389 12.6169 11.7389 13.6956Z" fill="black"/>
</svg>
